﻿{
  "Name": "Динамика",
  "Qestions": {
    "1": {
      "question": "Как двигались бы планеты, если бы их не притягивало Солнце?",
      "rightAnswer": "Если бы это притяжение исчезло, планеты улетели бы от Солнца, двигаясь по инерции, то есть прямолинейно и равномерно.",
      "otherAnswers": {
        "1": "Планеты остановятся",
        "2": "Изменений бы не произошло",
        "3": "Если бы это притяжение исчезло, планеты улетели бы от Солнца, двигаясь равноускоренно"
      }
    },
    "2": {
      "question": "Какие системы отсчета называют инерциальными?",
      "rightAnswer": "Система отсчёта, в которой все свободные тела движутся прямолинейно и равномерно или покоятся.",
      "otherAnswers": {
        "1": "Система отсчёта, в которой все свободные тела движутся равнозамедленно",
        "2": "Система отсчёта, в которой все свободные тела движутся равноускоренно",
        "3": "Система отсчёта, в которой все свободные тела движутся криволинейно"
      }
    },
    "3": {
      "question": "Почемы мы не ощущаем движения Земли?",
      "rightAnswer": "Вследствие больших размеров Земли",
      "otherAnswers": {
        "1": "Потому, что Земля движется слишком быстро",
        "2": "Движение происходит с постоянной скоростью.",
        "3": "Потому, что Земля не движется"
      }
    },
    "4": {
      "question": "Приведите пример действия силы трения",
      "rightAnswer": "Камень падает с ускорением",
      "otherAnswers": {
        "1": "Вода выталкивает погруженное в нее тело",
        "2": "При движении по столу после толчка скорость бруска будет уменьшаться.",
        "3": "Если толкнуть лежащий на столе брусок, он начнет двигаться"
      }
    },
    "5": {
      "question": "В каком случае вес тела меньше действующей на тело силы тяжести?",
      "rightAnswer": "Вес тела меньше, если ускорение тела направлено вправо",
      "otherAnswers": {
        "1": "Вес тела меньше, если ускорение тела направлено вниз.",
        "2": "Вес тела больше, если ускорение тела направлено вверх",
        "3": "Вес тела меньше, если ускорение тела направлено влево"
      }
    }
  }
}